Prac 3
…
# A tibble: 5 × 3
  carrier mean_distance sd_distance
  <chr>           <dbl>       <dbl>
1 YV                229           0
2 OO                733          NA
3 F9               1620           0
4 AS               2402           0
5 HA               4983           0

flights |>
  filter((carrier == 'YV' | carrier == 'F9') & month ==1)

# A tibble: 105 × 19
    year month   day dep_time sched_dep_time dep_delay arr_time sched_arr_time
   <int> <int> <int>    <int>          <int>     <dbl>    <int>          <int>
 1  2013     1     1      833            835        -2     1134           1102
 2  2013     1     1     1716           1730       -14     1947           1953
 3  2013     1     2      827            835        -8     1120           1102
 4  2013     1     2     1728           1730        -2     1952           1953
 5  2013     1     3      835            835         0     1102           1102
 6  2013     1     3     1428           1435        -7     1539           1559
 7  2013     1     3     1551           1602       -11     1659           1722
 8  2013     1     3     1933           1730       123     2131           1953
 9  2013     1     4      834            835        -1     1059           1102
10  2013     1     4     1430           1435        -5     1546           1559
# ℹ 95 more rows
# ℹ 11 more variables: arr_delay <dbl>, carrier <chr>, flight <int>,
#   tailnum <chr>, origin <chr>, dest <chr>, air_time <dbl>, distance <dbl>,
#   hour <dbl>, minute <dbl>, time_hour <dttm>
…
Question 6

#Step 1:Identify routes that more than one airline flies
mult_air <- flights |>
  group_by(origin,dest)|>
  summarise(n_airlines = n_distinct(carrier), .groups = 'drop')|>
  filter(n_airlines >1)

print(mult_air)

# A tibble: 128 × 3
   origin dest  n_airlines
   <chr>  <chr>      <int>
 1 EWR    ATL            4
 2 EWR    AUS            2
 3 EWR    BDL            2
 4 EWR    BNA            2
 5 EWR    BOS            3
 6 EWR    BWI            2
 7 EWR    CHS            2
 8 EWR    CLE            2
 9 EWR    CLT            3
10 EWR    CVG            2
# ℹ 118 more rows

#Step 2:For each such route, calculate the average arrival delay for each airline (exclude NAs). Find the names of these airlines.
delay_air <- flights |>
  inner_join(mult_air, by = c('origin','dest')) |>
  group_by(origin, dest, carrier) |>
  summarize(avg_arr_delay = mean(arr_delay, na.rm=TRUE), .groups = 'drop')

print(delay_air)

# A tibble: 343 × 4
   origin dest  carrier avg_arr_delay
   <chr>  <chr> <chr>           <dbl>
 1 EWR    ATL   9E              -6.25
 2 EWR    ATL   DL              10.0 
 3 EWR    ATL   EV              19.5 
 4 EWR    ATL   UA              10.5 
 5 EWR    AUS   UA               4.28
 6 EWR    AUS   WN             -11.2 
 7 EWR    BDL   EV               6.78
 8 EWR    BDL   UA              22.6 
 9 EWR    BNA   EV              17.7 
10 EWR    BNA   WN              -2.13
# ℹ 333 more rows

#Step 3: Identify best and worst performing airlines per route

performance_air <- delay_air |>
  group_by(origin,dest)|>
  mutate(
    best_perf = carrier[which.min(avg_arr_delay)],
    worst_perf = carrier[which.max(avg_arr_delay)],
    perf_diff = max(avg_arr_delay) - min(avg_arr_delay)
  )
print(performance_air)

# A tibble: 343 × 7
# Groups:   origin, dest [128]
   origin dest  carrier avg_arr_delay best_perf worst_perf perf_diff
   <chr>  <chr> <chr>           <dbl> <chr>     <chr>          <dbl>
 1 EWR    ATL   9E              -6.25 9E        EV              25.8
 2 EWR    ATL   DL              10.0  9E        EV              25.8
 3 EWR    ATL   EV              19.5  9E        EV              25.8
 4 EWR    ATL   UA              10.5  9E        EV              25.8
 5 EWR    AUS   UA               4.28 WN        UA              15.5
 6 EWR    AUS   WN             -11.2  WN        UA              15.5
 7 EWR    BDL   EV               6.78 EV        UA              15.8
 8 EWR    BDL   UA              22.6  EV        UA              15.8
 9 EWR    BNA   EV              17.7  WN        EV              19.8
10 EWR    BNA   WN              -2.13 WN        EV              19.8
# ℹ 333 more rows
…
# A tibble: 1 × 5
# Groups:   origin, dest [1]
  origin dest  best_perf worst_perf perf_diff
  <chr>  <chr> <chr>     <chr>          <dbl>
1 JFK    ATL   9E        EV              127.

#reason for the large performance difference
reason <- flights|>
  filter(origin == 'EWR' & dest == 'STL')
print(reason)

# A tibble: 2,516 × 19
    year month   day dep_time sched_dep_time dep_delay arr_time sched_arr_time
   <int> <int> <int>    <int>          <int>     <dbl>    <int>          <int>
 1  2013     1     1      950            954        -4     1155           1142
 2  2013     1     1     1342           1320        22     1617           1504
 3  2013     1     1     1528           1459        29     2002           1647
 4  2013     1     1     1657           1650         7     1921           1840
 5  2013     1     1     1814           1700        74     2051           1855
 6  2013     1     2      958           1000        -2     1211           1148
 7  2013     1     2     1200           1145        15     1418           1335
 8  2013     1     2     1341           1320        21     1548           1504
 9  2013     1     2     1456           1459        -3     1715           1647
10  2013     1     2     1658           1700        -2     1857           1850
# ℹ 2,506 more rows
# ℹ 11 more variables: arr_delay <dbl>, carrier <chr>, flight <int>,
#   tailnum <chr>, origin <chr>, dest <chr>, air_time <dbl>, distance <dbl>,
#   hour <dbl>, minute <dbl>, time_hour <dttm>
…
# Replace typos and remove NA values
dataset <- dataset[complete.cases(dataset), ] |>
  mutate(
    gender = ifelse(gender == "femal", "female", gender),
    disease_status = ifelse(disease_status == "Healthy", "healthy", disease_status)
  ) 

print(dataset)

# A tibble: 45 × 15
   id      age gender height weight blood_type disease_status cholesterol
   <chr> <int> <chr>   <dbl>  <dbl> <chr>      <chr>                <dbl>
 1 id_1     50 male     174.   69.4 O          diseased               228
 2 id_2     34 male     198.   62.3 A          healthy                223
 3 id_3     70 male     174.   55.6 O          healthy                213
 4 id_4     33 female   194.   69.5 O          healthy                198
 5 id_6     61 male     180.   60.8 AB         healthy                151
 6 id_7     69 female   170.   72.2 O          diseased               195
 7 id_9     62 male     197.   75.1 O          diseased               189
 8 id_10    56 female   165.   67.7 AB         healthy                196
 9 id_11    71 female   153    82.5 A          diseased               221
10 id_12    33 male     197.   68.7 O          healthy                156
# ℹ 35 more rows
# ℹ 7 more variables: glucose <dbl>, smoker <chr>, exercise <chr>,
#   income <int>, education <chr>, region <chr>, marital_status <chr>
